{
  "Requests" : [
    {
      "requesteeProfile":{
        "name": "Mike Baker",
        "profilePic": "../../../img/blankAvatar.jpg",
        "karma": "1"
      },
      "timeStart": "10:22pm",
      "timeEnd": "10:48pm",
      "requestDate": "3/11/2016",
      "from": "841 Bishop St #1830, Honolulu, HI 96813",
      "to": "3138 Waialae Ave, Honolulu, HI 96816",
      "id": "1"
    },{
      "requesteeProfile":{
        "name": "Paul Goat",
        "profilePic": "../../../img/blankAvatar.jpg",
        "karma": "50"
      },
      "timeStart": "8:00pm",
      "timeEnd": "10:00pm",
      "requestDate": "3/11/2016",
      "from": "1680 Kapiolani Blvd, Honolulu, HI 96814",
      "to": "1000 Kamehameha Hwy #227-228, Pearl City, HI 96782",
      "id": "2"
    },
    {
      "requesteeProfile":{
        "name": "Jolly Kim",
        "profilePic": "../../../img/blankAvatar.jpg",
        "karma": "30"
      },
      "timeStart": "3:30pm",
      "timeEnd": "4:30pm",
      "requestDate": "3/11/2016",
      "from": "850 Ticonderoga St Ste 100 Pearl Harbor, HI 96860",
      "to": "940 Queen St Honolulu, HI 96814",
      "id": "3"
    },
    {
      "requesteeProfile":{
        "name": "Michelle Sanchez",
        "profilePic": "../../../img/blankAvatar.jpg",
        "karma": "20"
      },
      "timeStart": "12:15pm",
      "timeEnd": "12:45pm",
      "requestDate": "3/11/2016",
      "from": "850 Ticonderoga St Ste 100 Pearl Harbor, HI 96860",
      "to": "1137 11th Ave Ste 102 Honolulu, HI 96816",
      "id": "4"
    },
    {
      "requesteeProfile":{
        "name": "Shelly Diaz",
        "profilePic": "../../../img/blankAvatar.jpg",
        "karma": "20"
      },
      "timeStart": "7:00pm",
      "timeEnd": "7:30pm",
      "requestDate": "3/11/2016",
      "from": "1450 Ala Moana Boulevard Honolulu, HI 96814",
      "to": "5000 Kahala Ave Honolulu, HI 96816",
      "id": "5"
    }
  ]
}
